{
	"LABEL": {
		"AJOUTER": "Ajouter",
		"ANNULER": "Annuler",
		"CREER": "Créer",
		"EDITER": "Editer",
		"ENREGISTRER": "Enregistrer",
		"EMAIL_PAIRFORM": "contact@pairform.fr",
		"GERER": "Gérer",
		"SUPPRIMER": "Supprimer",
		"FORMULAIRE": {
			"AUTEURS": "Auteur(s) *",
			"AUTEURS_DESCRIPTION": "Auteurs, séparés par des virgules",
			"CHAMPS_OBLIGATOIRES": "* Champs obligatoires",
			"CREER_PAR": "Créé par ",
			"DESCRIPTION": "Description *",
			"EMAIL": "Adresse électronique",
			"EMAILS": "Adresses électroniques",
			"LANGUE": "Langue *",
			"LICENCE": "Licence *",
			"LICENCE_DESCRIPTION": "Ex: CC BY-NC-SA",
			"LOGO": "Logo",
			"NB_CARACT_MAX_100": "100 caractères maximum",
			"NB_CARACT_MAX_35": "35 caractères maximum",
			"NB_CARACT_MAX_20": "20 caractères maximum",
			"NOM": "Nom *",
			"NOM_COURT": "Nom court *",
			"NOM_LONG": "Nom long *",
			"SELECTIONNER": "-- Sélectionner --",
			"SELECTIONNER_IMAGE": "Sélectionner une image",
			"SELECTIONNER_IMAGE_CONTRAINTES_100": "100 x 100 .png",
			"SELECTIONNER_IMAGE_CONTRAINTES_400": "400 x 400 .png",
			"THEME": "Thème *",
			"USAGE": "Usages *"
		},
		"ERREUR": {
			"ACCES_UTILISATEUR_NON_AUTORISE": "Accès non-autorisé",
			"ACCES_UTILISATEUR_NON_CONNECTE": "Vous devez être connecté pour accèder à cette page.",
			"AJOUTER_MEMBRE_DANS_ESPACE_AVANT_GROUPE": "Un membre qui n'est pas dans l'Espace ne peut pas être ajouté à un groupe.",
			"CHAMP_OBLIGATOIRE": "Ce champ est obligatoire.",
			"CHAMPS_OBLIGATOIRES": "Ces champs sont obligatoires.",
			"DIMENSIONS_IMAGE": "Les dimensions de l'image sont incorrectes.",
			"DISFONCTIONNEMENT": "Un disfonctionnement est survenu, veuillez recharger la page.",
			"DOUBLON": "Ce nom existe déjà, veuillez en choisir un nouveau.",
			"EMAIL_INVALIDE": "Cet email est invalide, il n'a pas pu être ajouté : ",
			"EMAIL_INEXISTANT": "Cet adresse électronique n'existe pas, veuillez réessayer.",
			"FORMAT_ARCHIVE": "L'archive n'est pas dans le format demandé.",
			"FORMAT_IMAGE": "L'image n'est pas dans le format demandé.",
			"IDENTIFICATION": "Cet utilisateur n'existe pas. Veuillez vérifier les informations saisies.",
			"MEMBRE_DEJA_EXISTANT": "Ce membre est déjà présent dans le groupe",
			"NB_CARACT_MAX": "Ce champ est trop long.",
			"NB_CARACT_MAX_35": "Un champ fait plus de 35 caractères.",
			"NB_CARACT_MIN": "Ce champ est trop court.",
			"NB_CARACT_MIN_2": "Un champ fait moins de 2 caractères.",
			"NOM_DE_DOMAINE_INVALIDE": "Ce nom de domaine est invalide, il n'a pas pu être ajouté : ",
			"POID_INVALIDE": "Le poids doit être un entier positif.",
			"URL_INVALIDE": "Cet url est invalide."
		},
		"SUCCES": {
			"DECONNEXION": "Déconnexion réussi",
			"ENREGISTREMENT": "Enregistrement réussi",
			"IDENTIFICATION": "Connexion réussi",
			"MISE_A_JOUR": "Edition réussi",
			"REINITIALISATION_MOT_DE_PASSE": "Un e-mail contenant votre nouveau mot de passe vient de vous être envoyé.",
			"SUPPRESSION": "Suppression réussi"
		},
		"CONNEXION": {
			"ACCES_BACKOFFICE": "Obtenir un accès au back-office",
			"CONNEXION": "Connexion",
			"DEMANDER_ACCES_BACKOFFICE": "Pour obtenir un accès au back-office de PairForm, contactez-nous : ",
			"IDENTIFIANT": "Identifiant",
			"MOT_DE_PASSE": "Mot de passe",
			"MOT_DE_PASSE_OUBLIE": "Mot de passe oublié ?",
			"REINITIALISER_MOT_DE_PASSE": "Réinitialiser le mot de passe"
		},
		"CAPSULE": {
			"ACCES": "Accèder à la section",
			"CAPSULES": "Sections",
			"CHERCHER": "Chercher une section",
			"CLEF_PAIRFORM": "Clef Pairform : ",
			"CREER": "Créer une section",
			"DESCRIPTION": "Décrivez votre section",
			"EDITER": "Editer la section",
			"MODIFICATION_URL_WEB_CAPSULE": "L'url de la section a changé : ",
			"SELECTIONNER": "Sélectionner une section",
			"UPLOAD_CAPSULE_SUR_SERVEUR": "Uploader sur le serveur Pairform",
			"SUPPRIMER": "Supprimer la section",
			"SUPPRIMER_MESSAGES": "Supprimer les messages",
			"SUPPRIMER_MESSAGES_DE": "Supprimer tout les messages de",
			"GESTION": {
				"ARCHIVE_MOBILE": "Archive (mobile)",
				"ARCHIVE_WEB": "Archive (web)",
				"POID": "Poids en Mo (mobile)",
				"POID_DESCRIPTION": "Poids de votre génération mobile",
				"SELECTIONNER_ARCHIVE_MOBILE": "Sélectionner l'archive mob.zip",
				"SELECTIONNER_ARCHIVE_WEB": "Sélectionner l'archive web.zip",
				"URL_MOBILE": "Url (mobile)",
				"URL_MOBILE_DESCRIPTION": "http://www.exemple.fr/section/mob",
				"URL_WEB": "Url (web)",
				"URL_WEB_DESCRIPTION": "http://www.exemple.fr/section/web"
			},
			"VISIBILITE": {
				"ATTENTION": "Attention :",
				"A_UNE_VISIBILITE": " est :",
				"DEFINITION_GLOBAL": "La visibilité s'applique sur le kiosque PairForm pour les versions web, iOS et Android.",
				"DEFINITION_ACCESSIBLE": "Section accessible = informations visibles, accès libre",
				"DEFINITION_INACCESSIBLE": "Section inaccessible = informations visibles, accès bloqué",
				"DEFINITION_INVISIBLE": "Section invisible = informations invisibles, accès bloqué",
				"GERER": "Gérer la visibilité",
				"POUR": "pour",
				"SELECTIONNER": "-- Sélectionner la visibilité --",
				"WARNING_CONFIGURATION_ACCES_VIA_URL": "Il est possible contrôler cet accès direct (sans passer par le kiosque) en ajoutant une étape de validation de l’identité des accédants. Cela suppose l’hébergement des sections sur les serveurs de PairForm. Si cette option vous intéresse, contactez-nous : ",
				"WARNING_ACCES_VIA_URL": "Une personne connaissant l’URL de la section, peut y accéder directement sans passer par le kiosque. Elle peut donc accéder à une section déclarée invisible ou inaccessible."
			}
		},
		"RESSOURCE": {
			"CHERCHER": "Chercher un document",
			"CREER": "Créer un document",
			"DESCRIPTION": "Décrivez votre document",
			"EDITER": "Editer le document",
			"RESSOURCES": "Documents",
			"SELECTIONNER": "Sélectionner un document",
			"SUPPRIMER": "Supprimer le document"
		},
		"ESPACE": {
			"CHERCHER": "Chercher un espace",
			"CREER": "Créer un espace",
			"EDITER": "Editer l'espace",
			"ESPACES": "Espaces",
			"SELECTIONNER": "Sélectionner un espace",
			"SUPPRIMER": "Supprimer l'espace"
		},
		"GROUPE": {
			"CHERCHER": "Chercher un groupe",
			"GERER": "Gérer les membres",
			"CREER": "Créer un groupe",
			"EDITER_NOM": "Editer le nom du groupe",
			"GROUPES": "Groupes",
			"NOM": "Nom du groupe",
			"NOUVEAU_NOM": "Nouveau nom du groupe",
			"SELECTIONNER": "-- Sélectionner un groupe --",
			"SPHERE_PUBLIQUE": "Sphère publique",
			"SUPPRIMER": "Supprimer le groupe",
			"MEMBRE": {
				"AJOUTER_EMAIL": "mbr1@nom_domaine.fr, mbr2@nom_domaine.fr, mbr3@nom_domaine.fr",
				"AJOUTER_NOM_DOMAINE": "nom_domaine_a.fr, nom_domaine_b.fr, nom_domaine_c.fr",
				"CHERCHER": "Chercher un membre",
				"LIMITE_TAILLE_LISTE": "... (Utilisez le champ de recherche)",
				"MEMBRES": "Membres du groupe",
				"MEMBRES_DE": "Membres de ",
				"MEMBRES_DE_L": "Membres de l'",
				"NOM_DOMAINE": "Noms de domaine",
				"GERER": "Ajouter / supprimer les membres",
				"SPHERE_PUBLIQUE_DESCRIPTION": "Le groupe Sphère publique contient toutes les personnes utilisant PairForm. Ce groupe n'est pas modifiable.",
				"WARNING_SUPPRESSION_GROUPE_DANS_ESPACE": "Attention, supprimer un membre du groupe Espace le supprimera aussi dans ses sous-groupes."
			}
		},
		"ROLE": {
			"AJOUTER": "Ajouter un rôle",
			"ATTRIBUER": "Attribuer les rôles (Back-office)",
			"ATTRIBUER_COURT": "Attribuer les rôles",
			"CHERCHER": "Chercher un rôle",
			"DEFINIR": "Définir les rôles (Back-office)",
			"DEFINIR_COURT": "Définir les rôles",
			"EDITER_TOUTES_RESSOURCES_ET_CAPSULES": "Editer tout les documents/sections",
			"GERER_MEMBRES": "Nommer des Membres",
			"GERER_RESSOURSES_ET_CAPSULES": "Créer des documents/sections",
			"GERER_VISIBILITE_TOUTES_CAPSULES": "Gérer toutes les visibilités",
			"MEMBRES": "Membres nommés",
			"NOMMER": "Nommer",
			"NOMMER_MEMBRE": "Nommer un membre",
			"SELECTIONNER": "-- Sélectionner un rôle --",
			"ROLES": "Rôles"
		},
		"STATISTIQUE": {
			"AFFICHER": "Afficher les statistiques",
			"MESSAGES_CAPSULE": "Messages (Section)",
			"MESSAGES_RESSOURCE": "Messages (Document)",
			"OBJECTIFS_APPRENTISSAGE": "Objectifs d'apprentissages",
			"STATISTIQUES": "Statistiques",
			"UTILISATEURS": "Utilisateurs",
			"RESSOURCE": {
				"UTILISATEURS": "Utilisateurs",
				"UTILISATEURS_ACTIFS": "Utilisateurs actifs (score > 0)",
				"LECTEURS": "Lecteurs",
				"PARTICIPANTS": "Participants",
				"COLLABORATEURS": "Collaborateurs",
				"ANIMATEURS": "Animateurs",
				"EXPERTS": "Experts",
				"MESSAGES_PAR_UTILISATEUR_ACTIF": "Messages par utilisateurs actifs",
				"VOTES_PAR_UTILISATEUR_ACTIF": "Votes par utilisateurs actifs",
				"MESSAGES": "Messages (réponses incluses)",
				"REPONSES": "Réponses à un message",
				"VOTES_POSITIFS": "Votes +1",
				"VOTES_NEGATIFS": "Votes -1",
				"MEDAILLES_OR": "Médailles d'or",
				"MEDAILLES_ARGENT": "Médailles d'argent",
				"MEDAILLES_BRONZE": "Médailles de bronze",
				"OBJECTIFS_APPRENTISSAGE": "Objectifs d'apprentissages",
				"OBJECTIFS_APPRENTISSAGE_VALIDES": "Objectifs d'apprentissages validés",
				"UTILISATEURS_UTILISANT_OBJECTIFS_APPRENTISSAGE": "Utilisateurs ayant défini au moins un objectif d'apprentissage"
			}
		}
	},
	"MENU": {
		"AIDE": "https://www.pairform.fr/PFRes/ManuelAuteurs/web/co/Manuel_auteur_5.html",
		"BETA": "- Beta -",
		"TABLEAU_DE_BORD": "Tableau de bord",
		"PROFIL": {			
			"DECONNEXION": "Déconnexion"
		},
		"LANGUES": {
			"ANGLAIS": "English",
			"ESPAGNOLE": "Español",
			"FRANCAIS": "Français",
			"LANGAGES": "Langages"
		}
	},
	"FOOTER" : {
		"COPYRIGHT": "© CAPE - Ecole des Mines de Nantes, France - "
	},
	"IMAGE": {
		"IMG_LANGUE": "flag_fr"
	},
	"ALT": {
		"AIDE": "Aide",
		"AVATAR": "avatar utilisateur",
		"DRAPEAU_LANGUE": "Drapeau",
		"LOGO_PAIRFORM": "Logo Pairform"
	},
	"META": {
		"AUTEUR": "CAPE - EMN",
		"DESCRIPTION": "Le back-office de PairForm, la première plateforme d'apprentissage en ligne reposant sur un réseau social au cœur du cours !",
		"KEYWORDS": "Réseau social document auteur internet ligne enseignement supérieur back-office",
		"LANGAGE": "fr-FR",
		"TITRE": "Back-office PairForm"
	}
}